#FIG 3.2  Produced by xfig version 3.2.5c
Landscape
Center
Metric
A4      
100.00
Single
-2
1200 2
5 1 0 2 0 7 50 -1 -1 6.000 0 0 1 0 4829.316 2610.302 5460 3690 4710 3855 3840 3375
	1 1 1.00 60.00 120.00
2 4 0 2 0 7 50 -1 -1 0.000 0 0 7 0 0 5
	 4050 6300 4050 2025 1575 2025 1575 6300 4050 6300
2 2 1 1 0 7 50 -1 -1 4.000 0 0 -1 0 0 5
	 1800 2250 3825 2250 3825 2475 1800 2475 1800 2250
2 2 1 1 0 7 50 -1 -1 4.000 0 0 -1 0 0 5
	 1800 2475 3825 2475 3825 2700 1800 2700 1800 2475
2 2 1 1 0 7 50 -1 -1 4.000 0 0 -1 0 0 5
	 1800 2700 3825 2700 3825 2925 1800 2925 1800 2700
2 2 1 1 0 7 50 -1 -1 4.000 0 0 -1 0 0 5
	 1800 3375 3825 3375 3825 3600 1800 3600 1800 3375
2 2 1 1 0 7 50 -1 -1 4.000 0 0 -1 0 0 5
	 1800 3600 3825 3600 3825 3825 1800 3825 1800 3600
2 2 1 1 0 7 50 -1 -1 4.000 0 0 -1 0 0 5
	 1800 3825 3825 3825 3825 4050 1800 4050 1800 3825
2 2 1 1 0 7 50 -1 -1 4.000 0 0 -1 0 0 5
	 1800 4050 3825 4050 3825 4275 1800 4275 1800 4050
2 2 1 1 0 7 50 -1 -1 4.000 0 0 -1 0 0 5
	 1800 4275 3825 4275 3825 4500 1800 4500 1800 4275
2 2 1 1 0 7 50 -1 -1 4.000 0 0 -1 0 0 5
	 1800 4500 3825 4500 3825 4725 1800 4725 1800 4500
2 2 1 1 0 7 50 -1 -1 4.000 0 0 -1 0 0 5
	 1800 4725 3825 4725 3825 4950 1800 4950 1800 4725
2 2 1 1 0 7 50 -1 -1 4.000 0 0 -1 0 0 5
	 1800 4950 3825 4950 3825 5175 1800 5175 1800 4950
2 2 1 1 0 7 50 -1 -1 4.000 0 0 -1 0 0 5
	 1800 5175 3825 5175 3825 5400 1800 5400 1800 5175
2 2 1 1 0 7 50 -1 -1 4.000 0 0 -1 0 0 5
	 1800 5400 3825 5400 3825 5625 1800 5625 1800 5400
2 2 1 1 0 7 50 -1 -1 4.000 0 0 -1 0 0 5
	 1800 5625 3825 5625 3825 5850 1800 5850 1800 5625
2 5 0 1 0 -1 50 -1 -1 0.000 0 0 -1 0 0 5
	0 android-robot.jpg
	 5040 2115 6255 2115 6255 3480 5040 3480 5040 2115
2 2 1 1 0 7 50 -1 -1 4.000 0 0 -1 0 0 5
	 1800 2925 3825 2925 3825 3150 1800 3150 1800 2925
2 2 1 1 0 7 50 -1 -1 4.000 0 0 -1 0 0 5
	 1800 3150 3825 3150 3825 3375 1800 3375 1800 3150
2 2 0 1 0 7 50 -1 -1 0.000 0 0 -1 0 0 5
	 1800 2250 3825 2250 3825 6075 1800 6075 1800 2250
4 0 0 50 -1 0 16 0.0000 4 240 1575 2025 1800 GalleryLayout\001
4 0 0 50 -1 0 16 0.0000 4 240 2535 4215 4155 onOptionsItemSelected\001
