#FIG 3.2  Produced by xfig version 3.2.5c
Landscape
Center
Metric
A4      
100.00
Single
-2
1200 2
5 1 0 2 0 7 50 -1 -1 6.000 0 1 1 0 -247.500 5017.500 2565 6705 2790 6255 3015 5355
	1 1 1.00 60.00 120.00
5 1 0 2 0 7 50 -1 -1 6.000 0 0 1 0 1382.318 2623.152 1695 1275 2250 1545 2715 2250
	1 1 1.00 60.00 120.00
5 1 0 2 0 7 50 -1 -1 0.000 0 1 1 0 6063.733 -4060.090 3300 6075 7275 6375 8715 6105
	1 1 1.00 60.00 120.00
5 1 0 2 0 7 50 -1 -1 0.000 0 1 1 0 5556.048 4567.379 9750 5370 9825 4470 9735 3690
	1 1 1.00 60.00 120.00
5 1 0 2 0 7 50 -1 -1 0.000 0 1 1 0 -2497.500 130702.500 8955 3225 7530 3105 6525 3030
	1 1 1.00 60.00 120.00
5 1 0 2 0 7 50 -1 -1 0.000 0 0 1 0 6131.250 3656.250 6525 3150 6750 3825 6300 4275
	1 1 1.00 60.00 120.00
5 1 0 2 0 7 50 -1 -1 6.000 0 1 1 0 1301.978 6058.545 5295 6675 5340 6195 5325 5685
	1 1 1.00 60.00 120.00
5 1 0 2 0 7 50 -1 -1 0.000 0 1 1 0 4617.060 3580.486 5805 2025 4215 1665 3210 2220
	1 1 1.00 60.00 120.00
2 2 0 1 0 7 50 -1 -1 0.000 0 0 -1 0 0 5
	 1800 2250 3825 2250 3825 6075 1800 6075 1800 2250
2 2 1 1 0 7 50 -1 -1 4.000 0 0 -1 0 0 5
	 1800 2250 3825 2250 3825 2475 1800 2475 1800 2250
2 2 1 1 0 7 50 -1 -1 4.000 0 0 -1 0 0 5
	 1800 2475 3825 2475 3825 2700 1800 2700 1800 2475
2 2 1 1 0 7 50 -1 -1 4.000 0 0 -1 0 0 5
	 1800 2700 3825 2700 3825 2925 1800 2925 1800 2700
2 2 1 1 0 7 50 -1 -1 4.000 0 0 -1 0 0 5
	 1800 2925 3825 2925 3825 3150 1800 3150 1800 2925
2 2 1 1 0 7 50 -1 -1 4.000 0 0 -1 0 0 5
	 1800 4725 3825 4725 3825 4950 1800 4950 1800 4725
2 2 1 1 0 7 50 -1 -1 4.000 0 0 -1 0 0 5
	 1800 4950 3825 4950 3825 5175 1800 5175 1800 4950
2 2 1 1 0 7 50 -1 -1 4.000 0 0 -1 0 0 5
	 1800 5175 3825 5175 3825 5400 1800 5400 1800 5175
2 2 1 1 0 7 50 -1 -1 4.000 0 0 -1 0 0 5
	 1800 5400 3825 5400 3825 5625 1800 5625 1800 5400
2 2 1 1 0 7 50 -1 -1 4.000 0 0 -1 0 0 5
	 1800 5625 3825 5625 3825 5850 1800 5850 1800 5625
2 2 0 1 0 7 50 -1 -1 0.000 0 0 -1 0 0 5
	 4275 2250 6300 2250 6300 6075 4275 6075 4275 2250
2 4 0 2 0 7 50 -1 -1 0.000 0 0 7 0 0 5
	 6525 6300 1575 6300 1575 2025 6525 2025 6525 6300
2 5 0 1 0 -1 50 -1 -1 0.000 0 0 -1 0 0 5
	0 android-robot.jpg
	 435 675 1590 675 1590 1950 435 1950 435 675
2 2 0 2 0 7 50 -1 -1 0.000 0 0 -1 0 0 5
	 8775 5400 10575 5400 10575 6300 8775 6300 8775 5400
2 2 0 2 0 7 50 -1 -1 0.000 0 0 -1 0 0 5
	 9000 2925 10350 2925 10350 3600 9000 3600 9000 2925
2 2 1 1 0 7 50 -1 -1 4.000 0 0 -1 0 0 5
	 1800 3825 3825 3825 3825 4050 1800 4050 1800 3825
2 2 1 1 0 7 50 -1 -1 4.000 0 0 -1 0 0 5
	 1800 4050 3825 4050 3825 4275 1800 4275 1800 4050
2 2 1 1 0 7 50 -1 -1 4.000 0 0 -1 0 0 5
	 1800 4500 3825 4500 3825 4725 1800 4725 1800 4500
2 2 1 1 0 7 50 -1 -1 4.000 0 0 -1 0 0 5
	 1800 4275 3825 4275 3825 4500 1800 4500 1800 4275
2 2 1 1 0 7 50 -1 -1 4.000 0 0 -1 0 0 5
	 1800 3150 3825 3150 3825 3375 1800 3375 1800 3150
2 2 1 1 0 7 50 -1 -1 4.000 0 0 -1 0 0 5
	 1800 3375 3825 3375 3825 3600 1800 3600 1800 3375
4 0 0 50 -1 0 16 0.0000 4 240 1650 1800 6975 TitlesFragment\001
4 0 0 50 -1 0 16 0.0000 4 240 1800 4530 6990 PictureFragment\001
4 0 0 50 -1 0 16 0.0000 4 240 1575 3270 1770 GalleryLayout\001
4 0 0 50 -1 0 16 0.0000 4 240 2535 1830 1215 onOptionsItemSelected\001
4 0 0 50 -1 0 16 0.0000 4 180 1110 9135 5895 Controller\001
4 0 0 50 -1 0 16 0.0000 4 240 2520 7155 6645 onTitlesReloadRequest\001
4 0 0 50 -1 0 16 0.0000 4 180 705 9345 3315 Model\001
4 0 0 50 -1 0 16 0.0000 4 240 1935 6975 3825 onModelChanged\001
4 0 0 50 -1 0 16 0.0000 4 240 1935 5415 1740 onModelChanged\001
4 0 0 50 -1 0 16 0.0000 4 240 2205 7515 4905 setPictures(pictures)\001
